{
    "name": "ng-test",
    "version": "0.0.0",
    "license": "MIT",
    "scripts": {
        "ng": "ng",
        "start": "npm-run-all --parallel test-ci serve-app ",
        "build": "ng build",
        "test": "ng test",
        "serve-app": "ng serve",
        "test-ci": "ng test --single-run=true --browsers PhantomJS --watch=false --code-coverage",
        "compodoc": "compodoc -p tsconfig.json",
        "lint": "ng lint",
        "e2e": "ng e2e"
    },
    "pre-commit": [
        "test-ci",
        "compodoc"

    ],
    "post-commit": {
        "run": "compodoc"
    },
    "private": true,
    "dependencies": {
        "@angular/common": "^4.0.0",
        "@angular/compiler": "^4.0.0",
        "@angular/core": "^4.0.0",
        "@angular/forms": "^4.0.0",
        "@angular/http": "^4.0.0",
        "@angular/platform-browser": "^4.0.0",
        "@angular/platform-browser-dynamic": "^4.0.0",
        "@angular/router": "^4.0.0",
        "core-js": "^2.4.1",
        "intl": "^1.2.5",
        "rxjs": "^5.1.0",
        "surge": "^0.19.0",
        "zone.js": "^0.8.4"
    },
    "devDependencies": {
        "@angular/cli": "1.0.0",
        "@angular/compiler-cli": "^4.0.0",
        "@types/jasmine": "2.5.38",
        "@types/node": "~6.0.60",
        "codelyzer": "~2.0.0",
        "jasmine-core": "~2.5.2",
        "jasmine-spec-reporter": "~3.2.0",
        "karma": "^1.7.1",
        "karma-chrome-launcher": "^2.2.0",
        "karma-cli": "~1.0.1",
        "karma-coverage-istanbul-reporter": "^1.3.0",
        "karma-jasmine": "^1.1.0",
        "karma-jasmine-html-reporter": "^0.2.2",
        "karma-phantomjs-launcher": "^1.0.4",
        "npm-run-all": "^4.1.1",
        "phantomjs-prebuilt": "^2.1.15",
        "post-commit": "0.0.1",
        "pre-commit": "^1.2.2",
        "protractor": "~5.1.0",
        "ts-node": "~2.0.0",
        "tslint": "~4.5.0",
        "typescript": "~2.2.0"
    }
}